﻿{
  "Descriptor": {
    "UId": "cb795483-bc4b-49e6-b4df-0c2d86f198aa",
    "Name": "UsrFilmsFile",
    "ModifiedOnUtc": "\/Date(1644962094000)\/",
    "Parent": {
      "UId": "556c5867-60a7-4456-aae1-a57a122bef70",
      "Name": "File"
    },
    "ManagerName": "EntitySchemaManager",
    "Caption": "Films attachment"
  }
}